com/aem/echos/core/models/HelloWorldModel.class
com/aem/echos/core/schedulers/SimpleScheduledTask.class
com/aem/echos/core/listeners/SimpleResourceListener.class
com/aem/echos/core/package-info.class
com/aem/echos/core/filters/LoggingFilter.class
com/aem/echos/core/servlets/SimpleServlet.class
